{
  "name": "bw-time-zone",
  "$schema": "../../node_modules/nx/schemas/project-schema.json",
  "sourceRoot": "modules/bw-time-zone/src",
  "projectType": "library",
  "tags": [],
  "// targets": "to see all targets run: nx show project bw-time-zone --web",
  "targets": {}
}
