{
  "name": "bw-locale",
  "$schema": "../../node_modules/nx/schemas/project-schema.json",
  "sourceRoot": "modules/bw-locale/src",
  "projectType": "library",
  "tags": [],
  "// targets": "to see all targets run: nx show project bw-locale --web",
  "targets": {
    "gendoc": {
      "command": "typedoc --tsconfig {projectRoot}/tsconfig.doc.json"
    }
  }
}
