{
  "name": "bw-layout",
  "$schema": "../../node_modules/nx/schemas/project-schema.json",
  "sourceRoot": "modules/bw-layout/src",
  "projectType": "library",
  "tags": [],
  "// targets": "to see all targets run: nx show project bw-layout --web",
  "targets": {}
}
