{
  "name": "bw-config",
  "$schema": "../../node_modules/nx/schemas/project-schema.json",
  "sourceRoot": "modules/bw-config/src",
  "projectType": "library",
  "tags": [],
  "// targets": "to see all targets run: nx show project bw-config --web",
  "targets": {}
}
