{
  "common": {
    "bank_transaction": {
      "transaction",
      "merchant",
      "payment_processing",
      "atm",
      "loan_payment",
      "loan_interest",
      "account_maintenance",
      "others"
    },
    "rent_utilities": [
      "rent",
      "electricity",
      "internet",
      "water",
      "natural_gas",
      "cell_phone",
      "telephone",
      "postage",
      "delivery_service",
      "sewer",
      "trash",
      "others"
    ],
  },
  "personal": {
  },
  "business": {
    "income": {
      "sales",
      "service_fee",
      "interest",
      "dividend",
      "royalties",
      "rent"
    },
    "salaries_compensation": [
      "base_salaries",
      "bonuses",
      "overtime_pay",
      "commissions",
      "retirement_contributions",
      "paid_time_off",
      "others",
    ],
    "marketing_advertising": [
      "online_ad",
      "social_media_ad",
      "website_maintenance",
      "business_cards",
      "printing",
      "events",
      "sponsorships",
      "donations",
      "others",
    ],
    "meals_travel": [
      "transportation",
      "lodging",
      "meals",
      "parking",
      "client_dining",
      "team_meals",
      "others",
    ],
    "supplies_equipment": [
      "stationery",
      "supplies",
      "cleaning",
      "repairs",
      "hardward",
      "software",
      "service",
      "others",
    ],
    "education_training": [
      "training_programs",
      "courses",
      "conferences",
      "certifications",
      "others",
    ],
    "insurance": [
      "liability",
      "property_damage",
      "worker_compensation",
      "health_insurance",
      "labor_insurance",
      "others",
    ],
    "taxes": [
      "income_tax",
      "payroll_tax",
      "property_tax",
      "value_added_tax",
      "others",
    ],
    "contract_labor": [
      "part_time",
      "intern",
      "freelancers",
      "consultants",
      "lawyers",
      "accountants",
      "others",
    ],
  },
  "accounting": {

  }
}
