{
  "name": "bw-core",
  "$schema": "../../node_modules/nx/schemas/project-schema.json",
  "sourceRoot": "modules/bw-core/src",
  "projectType": "library",
  "tags": [],
  "// targets": "to see all targets run: nx show project bw-core --web",
  "targets": {}
}
